<?xml version="1.0" encoding="UTF-8" standalone="no"?>
<!-- Created with Inkscape (http://www.inkscape.org/) -->

<svg
   xmlns:dc="http://purl.org/dc/elements/1.1/"
   xmlns:cc="http://creativecommons.org/ns#"
   xmlns:rdf="http://www.w3.org/1999/02/22-rdf-syntax-ns#"
   xmlns:svg="http://www.w3.org/2000/svg"
   xmlns="http://www.w3.org/2000/svg"
   xmlns:sodipodi="http://sodipodi.sourceforge.net/DTD/sodipodi-0.dtd"
   xmlns:inkscape="http://www.inkscape.org/namespaces/inkscape"
   width="512"
   height="512"
   viewBox="0 0 135.46666 135.46666"
   version="1.1"
   id="svg8"
   inkscape:version="0.92.4 (5da689c313, 2019-01-14)"
   sodipodi:docname="libreda_mycelium_logo_square.svg">
  <title
     id="title817">LibrEDA Logo</title>
  <defs
     id="defs2" />
  <sodipodi:namedview
     id="base"
     pagecolor="#ffffff"
     bordercolor="#666666"
     borderopacity="1.0"
     inkscape:pageopacity="0.0"
     inkscape:pageshadow="2"
     inkscape:zoom="0.35355339"
     inkscape:cx="180.2338"
     inkscape:cy="-475.59028"
     inkscape:document-units="mm"
     inkscape:current-layer="layer1"
     showgrid="true"
     units="px"
     inkscape:window-width="1362"
     inkscape:window-height="729"
     inkscape:window-x="0"
     inkscape:window-y="18"
     inkscape:window-maximized="0"
     inkscape:snap-grids="true"
     inkscape:snap-to-guides="true"
     inkscape:snap-bbox="true"
     inkscape:bbox-paths="true"
     inkscape:snap-bbox-edge-midpoints="true"
     inkscape:bbox-nodes="true">
    <inkscape:grid
       type="xygrid"
       id="grid815"
       empspacing="4" />
  </sodipodi:namedview>
  <metadata
     id="metadata5">
    <rdf:RDF>
      <cc:Work
         rdf:about="">
        <dc:format>image/svg+xml</dc:format>
        <dc:type
           rdf:resource="http://purl.org/dc/dcmitype/StillImage" />
        <dc:title>LibrEDA Logo</dc:title>
        <dc:creator>
          <cc:Agent>
            <dc:title>Thomas Kramer</dc:title>
          </cc:Agent>
        </dc:creator>
        <cc:license
           rdf:resource="" />
      </cc:Work>
    </rdf:RDF>
  </metadata>
  <g
     inkscape:label="Layer 1"
     inkscape:groupmode="layer"
     id="layer1"
     transform="translate(0,-161.53336)">
    <g
       id="g1076"
       transform="translate(-4.2333367,4.2333333)">
      <path
         inkscape:connector-curvature="0"
         id="path819"
         d="m 21.16667,174.23336 v 101.6 h 101.6"
         style="fill:none;stroke:#000000;stroke-width:6.3499999;stroke-linecap:square;stroke-linejoin:miter;stroke-miterlimit:4;stroke-dasharray:none;stroke-opacity:1" />
      <g
         id="g1062">
        <path
           style="fill:none;stroke:#000000;stroke-width:6.3499999;stroke-linecap:square;stroke-linejoin:miter;stroke-miterlimit:4;stroke-dasharray:none;stroke-opacity:1"
           d="m 21.16667,191.1667 h -12.7"
           id="path821"
           inkscape:connector-curvature="0" />
        <path
           inkscape:connector-curvature="0"
           id="path825"
           d="M 21.16667,208.10003 H 8.4666703"
           style="fill:none;stroke:#000000;stroke-width:6.3499999;stroke-linecap:square;stroke-linejoin:miter;stroke-miterlimit:4;stroke-dasharray:none;stroke-opacity:1" />
        <path
           style="fill:none;stroke:#000000;stroke-width:6.3499999;stroke-linecap:square;stroke-linejoin:miter;stroke-miterlimit:4;stroke-dasharray:none;stroke-opacity:1"
           d="M 21.16667,225.03336 H 8.4666706"
           id="path827"
           inkscape:connector-curvature="0" />
        <path
           inkscape:connector-curvature="0"
           id="path829"
           d="M 21.16667,241.9667 H 8.466671"
           style="fill:none;stroke:#000000;stroke-width:6.3499999;stroke-linecap:square;stroke-linejoin:miter;stroke-miterlimit:4;stroke-dasharray:none;stroke-opacity:1" />
        <path
           style="fill:none;stroke:#000000;stroke-width:6.3499999;stroke-linecap:square;stroke-linejoin:miter;stroke-miterlimit:4;stroke-dasharray:none;stroke-opacity:1"
           d="M 21.16667,258.90003 H 8.466671"
           id="path831"
           inkscape:connector-curvature="0" />
        <path
           inkscape:connector-curvature="0"
           id="path840"
           d="m 38.100008,275.83336 v 12.7"
           style="fill:none;stroke:#000000;stroke-width:6.3499999;stroke-linecap:square;stroke-linejoin:miter;stroke-miterlimit:4;stroke-dasharray:none;stroke-opacity:1" />
        <path
           style="fill:none;stroke:#000000;stroke-width:6.3499999;stroke-linecap:square;stroke-linejoin:miter;stroke-miterlimit:4;stroke-dasharray:none;stroke-opacity:1"
           d="m 55.033338,275.83336 v 12.7"
           id="path842"
           inkscape:connector-curvature="0" />
        <path
           inkscape:connector-curvature="0"
           id="path844"
           d="m 71.966668,275.83336 v 12.7"
           style="fill:none;stroke:#000000;stroke-width:6.3499999;stroke-linecap:square;stroke-linejoin:miter;stroke-miterlimit:4;stroke-dasharray:none;stroke-opacity:1" />
        <path
           style="fill:none;stroke:#000000;stroke-width:6.3499999;stroke-linecap:square;stroke-linejoin:miter;stroke-miterlimit:4;stroke-dasharray:none;stroke-opacity:1"
           d="m 88.900008,275.83336 v 12.7"
           id="path846"
           inkscape:connector-curvature="0" />
        <path
           inkscape:connector-curvature="0"
           id="path848"
           d="m 105.83334,275.83336 v 12.7"
           style="fill:none;stroke:#000000;stroke-width:6.3499999;stroke-linecap:square;stroke-linejoin:miter;stroke-miterlimit:4;stroke-dasharray:none;stroke-opacity:1" />
      </g>
    </g>
    <rect
       style="opacity:1;fill:#000000;fill-opacity:1;stroke:none;stroke-width:6.90449858;stroke-linecap:round;stroke-linejoin:miter;stroke-miterlimit:4;stroke-dasharray:none;stroke-opacity:1"
       id="rect1238"
       width="104.775"
       height="104.775"
       x="16.933332"
       y="175.29169" />
    <path
       style="fill:#0585ff;fill-opacity:1;stroke:none;stroke-width:0.26458332px;stroke-linecap:butt;stroke-linejoin:miter;stroke-opacity:1;opacity:0"
       d="m 25.400004,174.23336 v 97.36667 h 97.366666 v -21.16667 h -76.2 v -76.2 z"
       id="path894"
       inkscape:connector-curvature="0"
       sodipodi:nodetypes="ccccccc" />
    <path
       sodipodi:nodetypes="ccccccc"
       inkscape:connector-curvature="0"
       id="path904"
       d="m 52.916667,172.11669 v 71.96667 H 124.88333 V 222.91669 H 74.083333 v -50.8 z"
       style="fill:#0585ff;fill-opacity:0.74901961;stroke:none;stroke-width:0.26458332px;stroke-linecap:butt;stroke-linejoin:miter;stroke-opacity:1;opacity:0" />
    <path
       sodipodi:nodetypes="ccccc"
       inkscape:connector-curvature="0"
       id="path908"
       d="m 107.95,167.88336 v 21.16667 h 21.16667 v -21.16667 z"
       style="fill:#0585ff;fill-opacity:0.6681416;stroke:none;stroke-width:0.26458332px;stroke-linecap:butt;stroke-linejoin:miter;stroke-opacity:1" />
    <path
       style="opacity:1;fill:#ffffff;fill-opacity:1;stroke:none;stroke-width:2.75407648;stroke-linecap:square;stroke-linejoin:miter;stroke-miterlimit:4;stroke-dasharray:none;stroke-opacity:1"
       d="m 65.05108,181.64172 c -2.487216,0.85686 -0.198595,3.78721 -0.01728,5.59724 0.874819,2.86493 0.614117,5.80294 0.213379,8.72324 -0.508659,4.91862 -6.284951,4.01697 -9.747127,5.04247 -2.135296,2.24724 -7.129948,2.46083 -7.317276,-1.39184 -0.631457,-3.45602 -2.540727,-6.69004 -2.172819,-10.27233 1.071429,-2.48597 -2.447964,-4.37366 -2.120087,-0.94836 -0.26259,1.41454 0.655151,3.62623 -1.414929,3.81998 -2.588681,2.70178 4.061287,1.12353 1.778462,3.07775 -1.840084,0.29553 -3.060162,-0.91454 -4.30184,-2.07214 -1.169512,-1.22981 -4.986024,-4.49735 -4.295058,-0.87245 1.42889,1.19322 2.857781,2.38648 4.286668,3.57972 -2.317138,2.67873 1.59174,1.6445 3.101323,1.40545 2.116903,-0.39203 2.908946,0.81201 3.07079,2.77528 1.190751,2.17847 -2.139007,1.12878 -3.409073,1.54995 -1.465058,-0.88414 -3.108501,-1.81005 -3.496762,-3.64602 -2.60912,-1.94704 -0.907622,2.39866 -3.675508,1.72543 -0.87057,2.95687 3.240804,0.8575 4.360006,2.60153 -0.821834,0.11757 -3.984554,-0.98417 -2.887809,1.58505 -3.076342,1.34816 0.112463,3.62795 1.798487,1.39052 2.594189,-1.70815 5.749158,-1.67228 8.735997,-1.86475 4.885257,1.47263 2.24613,7.45746 6.784908,9.78435 2.140548,4.68323 1.647173,12.02122 -4.094656,13.79408 -5.417346,1.46302 -8.47414,7.42516 -13.146164,8.94627 -2.853965,0.29305 -2.415654,-2.85089 -3.1737,-4.69104 -0.994968,-3.39767 -2.03875,-6.77463 -2.442064,-10.30847 -2.128404,-2.63543 -2.360887,1.74007 -1.595411,3.27169 0.864114,1.53655 -4.009865,3.17154 -0.260213,3.65872 2.041378,-0.91429 1.567702,2.3632 -0.685314,1.01087 -1.859811,-0.69673 -2.916401,-2.97082 -4.768618,-3.84317 -2.853301,1.14901 1.003204,3.31639 2.065741,4.59926 -2.3076,2.67766 1.594389,1.64281 3.101315,1.40556 2.116842,-0.39195 2.908658,0.81237 3.070691,2.7754 1.190934,2.17849 -2.138887,1.12884 -3.408984,1.54999 -1.465047,-0.88414 -3.108486,-1.81007 -3.496742,-3.64602 -2.609129,-1.94696 -0.907615,2.3986 -3.675505,1.72516 -0.870568,2.95668 3.240797,0.85783 4.360003,2.60181 -0.825389,0.11486 -4.001364,-0.99079 -2.888036,1.58484 -3.075906,1.34861 0.112764,3.62802 1.798668,1.39062 2.947922,-1.89486 6.560233,-1.7183 9.924276,-1.87559 4.04915,1.61677 3.637412,7.93544 7.367327,10.75563 2.50709,2.15332 6.900597,6.07804 2.191091,8.48621 -6.369234,2.45384 -12.926427,4.32759 -19.546081,5.9641 -3.24114,2.50465 1.630833,3.47936 3.598044,2.12759 1.611756,-0.57231 3.21293,-1.12033 3.621414,1.06585 2.439141,2.55191 2.975115,-1.73122 2.159532,-2.76032 1.839784,-0.59215 3.393868,-0.83547 2.737364,1.62042 0.421509,2.15164 -1.875771,3.35811 -2.847022,5.02555 -1.72295,1.12101 -2.98458,5.12102 0.355057,4.16475 1.389067,-1.46498 2.554383,-3.13922 3.853355,-4.68844 2.774314,2.93848 3.906187,-1.45803 1.86322,-3.23281 0.209548,-1.48489 -0.877178,-3.82366 0.216995,-4.72584 1.58637,-0.5653 3.172743,-1.13058 4.759117,-1.69589 1.18449,1.76356 2.368979,3.52713 3.553471,5.29071 -1.207899,1.80568 -1.850742,4.19762 -4.157516,4.86322 -3.429124,1.9691 0.909205,3.10305 1.632559,3.02911 -0.263402,3.91211 4.296592,2.01981 2.904492,-1.02055 -0.697976,-1.15815 1.324693,-4.6648 1.243784,-2.19525 -2.071301,2.17046 0.812233,3.77245 2.245008,2.98197 1.221103,3.39297 5.167369,0.46239 2.379255,-1.75685 -2.356687,-2.81886 -3.186449,-6.51213 -5.217928,-9.55276 -1.310772,-2.11967 -2.793476,-4.45466 -0.958795,-6.89023 4.323089,-2.61032 10.868467,-4.04397 12.855068,-9.85262 2.075362,-4.52782 7.951962,-4.7926 12.285227,-4.91441 5.083161,0.26652 10.25608,1.29329 15.276364,-0.055 2.736685,1.93456 1.836902,5.03995 -0.625401,6.57224 -1.923482,1.45197 -2.995822,3.51242 -3.92335,5.67379 -0.872575,1.9328 -2.93994,3.24344 -3.548512,5.25847 1.357204,2.4831 3.017069,-1.15568 4.060715,-2.22882 1.220683,0.0185 5.080422,-0.37028 1.817926,-2.17013 -0.204688,-2.29694 1.861722,-0.82956 2.213878,0.77862 0.08274,1.82384 -0.331169,3.71288 0.08729,5.49268 2.767881,1.34205 1.78307,-2.97091 2.019668,-4.61983 3.533727,-0.0792 0.160363,-2.29372 -1.052488,-3.23364 -1.347046,-1.30996 -2.286582,-2.58429 -0.116611,-3.5867 1.280627,-1.36403 2.558582,-2.59963 3.766606,-0.46584 1.652788,0.89445 1.343222,2.77049 1.61281,4.35682 -1.758123,1.50328 -0.04327,5.04863 1.376641,2.13049 1.950733,2.92155 3.428227,-0.8485 0.941808,-2.16496 -0.787324,-3.21605 0.265444,-0.0474 1.521762,0.57521 0.471737,-1.69353 5.260377,-0.0446 2.845337,-2.8215 -3.220004,-0.62095 -6.001799,-2.43162 -8.145289,-4.87394 -3.319267,-3.1505 0.266378,-7.0706 1.777962,-10.12722 0.631852,-3.8798 0.951614,-10.38021 6.462577,-7.95572 2.46074,2.8829 5.61049,4.88271 8.87442,6.67804 1.39473,0.61778 3.33323,3.43853 4.56128,1.36954 -0.31439,-1.76194 -2.60882,-2.27506 -3.82421,-3.44553 2.05082,-2.69238 -0.79791,-4.57314 -1.85587,-1.10098 -2.73134,-0.59744 -0.0728,-1.87123 0.91448,-2.93528 2.15137,-0.69053 4.50898,-0.88877 6.67927,-1.60299 1.14352,-3.09268 -3.02344,-1.21711 -4.61978,-0.89626 -1.36194,0.82155 -1.30576,-3.56245 -2.9706,-0.3539 -0.21757,1.49418 -2.09071,2.83961 -3.13484,3.20685 -0.753,-1.12085 -3.43692,-2.10668 -2.9415,-3.31483 1.12672,-1.14186 1.86468,-2.96216 3.73852,-2.80009 1.64386,-1.14683 4.15656,1.8862 4.87402,-0.612 -2.73313,-1.04436 1.57529,-2.8162 -1.27454,-3.77291 -1.01369,0.45687 -3.40986,3.31063 -3.6713,1.79476 3.1409,-0.51147 0.70048,-2.16925 1.05688,-3.75747 -0.85405,-3.20322 -2.85025,0.604 -2.71202,2.28724 -0.88191,2.61863 -2.82531,4.54881 -4.58484,6.59824 -5.617385,2.57055 -7.079512,-5.68511 -12.948815,-4.28697 -5.476434,-0.3395 -10.595644,-2.74031 -15.694944,-4.5834 -5.981686,-1.67297 -3.940001,-8.66461 -6.878523,-12.56337 -1.985204,-2.46612 2.412935,-3.47917 4.358303,-3.26476 4.551439,-0.37509 9.058028,-1.22473 13.644006,-0.9251 3.569411,-0.69461 0.104373,-3.45998 -2.060092,-2.50095 -2.467073,0.7643 -2.459484,-1.08184 -3.591462,-2.51577 -2.539062,-0.39993 -0.640528,4.32155 -3.245149,2.68376 0.27061,-1.68145 0.69696,-3.25948 2.395454,-3.99275 1.180268,-1.30036 4.572908,-2.16248 3.127135,-4.32077 -1.876875,-0.72476 -3.20221,1.64106 -4.760522,2.41975 -0.746458,0.17792 -3.859294,-1.80428 -2.853814,1.42542 0.803547,1.63835 -0.447463,3.35539 -0.627621,5.03141 -1.454821,-0.0512 -3.721106,0.70172 -4.682132,0.16103 0.374437,-1.95545 -0.228385,-4.37383 1.753086,-5.56798 0.91764,-1.77421 3.067173,-1.349 4.377158,-2.46351 0.854109,-2.78659 -3.309468,-0.69188 -1.816328,-3.55648 -2.194676,-2.78393 -2.723622,1.62377 -3.203508,3.12607 -2.689875,2.28776 0.67644,-1.30769 -0.306423,-2.39356 -3.096574,0.60062 -1.08126,-2.60085 -3.518639,-3.41873 z m 0.955004,32.68418 c 4.603134,1.27842 9.743032,3.27366 12.568544,7.33921 0.499386,3.69203 -4.542552,6.66101 -1.877468,10.92002 -1.935652,4.7691 -8.53671,2.85576 -12.535822,2.48786 -3.694035,-2.06154 -4.135438,-7.1983 -4.051491,-11.08047 -0.384686,-4.15434 0.709,-9.51602 5.896237,-9.66662 z"
       id="path986"
       inkscape:connector-curvature="0" />
  </g>
</svg>
